…
Gather
------

PULSE data

``` r
pulse_data = haven::read_sas("./data/public_pulse_data.sas7bdat") %>%
  janitor::clean_names()
pulse_data
```

    ## # A tibble: 1,087 x 7
    ##       id   age sex  bdi_score_bl bdi_score_01m bdi_score_06m bdi_score_12m
    ##    <dbl> <dbl> <ch>        <dbl>         <dbl>         <dbl>         <dbl>
    ##  1 10003  48.0 male            7             1             2             0
    ##  2 10015  72.5 male            6            NA            NA            NA
    ##  3 10022  58.5 male           14             3             8            NA
    ##  4 10026  72.7 male           20             6            18            16
    ##  5 10035  60.4 male            4             0             1             2
    ##  6 10050  84.7 male            2            10            12             8
    ##  7 10078  31.3 male            4             0            NA            NA
    ##  8 10088  56.9 male            5            NA             0             2
    ##  9 10091  76.0 male            0             3             4             0
    ## 10 10092  74.2 fem…           10             2            11             6
    ## # ... with 1,077 more rows
…
    ## Warning: attributes are not identical across measure variables;
    ## they will be dropped

Illustrate 'separate':

``` r
pulse_tidy %>% 
  separate(visit, into = c("bdi_str", "score_str", "visit"), sep = "_") %>% 
  select(-bdi_str, -score_str) %>% 
  mutate(visit = replace(visit, visit == "bl", "00m"))
```

    ## # A tibble: 4,348 x 5
    ##       id   age sex    visit bdi_score
    ##    <dbl> <dbl> <chr>  <chr>     <dbl>
    ##  1 10003  48.0 male   00m           7
    ##  2 10015  72.5 male   00m           6
    ##  3 10022  58.5 male   00m          14
    ##  4 10026  72.7 male   00m          20
    ##  5 10035  60.4 male   00m           4
    ##  6 10050  84.7 male   00m           2
    ##  7 10078  31.3 male   00m           4
    ##  8 10088  56.9 male   00m           5
    ##  9 10091  76.0 male   00m           0
    ## 10 10092  74.2 female 00m          10
    ## # ... with 4,338 more rows
…
Learning Assessment, data cleaning/tidying

``` r
litters_data %>% 
  select(litter_number, ends_with("weight")) %>%  
  gather(key = gd, value = weight, gd0_weight:gd18_weight) %>% 
  mutate(gd = recode(gd, "gd0_weight" = 0, "gd18_weight" = 18)) %>% 
  arrange(litter_number)
```

    ## # A tibble: 98 x 3
    ##    litter_number      gd weight
    ##    <chr>           <dbl>  <dbl>
    ##  1 #1/2/95/2           0   27  
    ##  2 #1/2/95/2          18   42  
    ##  3 #1/5/3/83/3-3/2     0   NA  
    ##  4 #1/5/3/83/3-3/2    18   NA  
    ##  5 #1/6/2/2/95-2       0   NA  
    ##  6 #1/6/2/2/95-2      18   NA  
    ##  7 #1/82/3-2           0   NA  
    ##  8 #1/82/3-2          18   NA  
    ##  9 #100                0   20  
    ## 10 #100               18   39.2
    ## # ... with 88 more rows
…
    ## Parsed with column specification:
    ## cols(
    ##   `What is your UNI?` = col_character(),
    ##   `What is your degree program?` = col_character(),
    ##   `Which most accurately describes your experience with Git?` = col_character()
    ## )

``` r
left_join(surv_os, surv_pr_git)
```

    ## Joining, by = "id"

    ## # A tibble: 175 x 4
    ##    id        os       prog  git_exp                                       
    ##    <chr>     <chr>    <chr> <chr>                                         
    ##  1 student_… <NA>     MS    Pretty smooth: needed some work to connect Gi…
    ##  2 student_… Windows… Other Pretty smooth: needed some work to connect Gi…
    ##  3 student_… Mac OS X MPH   Smooth: installation and connection with GitH…
    ##  4 student_… Windows… MS    Smooth: installation and connection with GitH…
    ##  5 student_… Mac OS X MS    Smooth: installation and connection with GitH…
    ##  6 student_… Mac OS X MS    Smooth: installation and connection with GitH…
    ##  7 student_… Windows… MPH   Pretty smooth: needed some work to connect Gi…
    ##  8 student_… Windows… MPH   Pretty smooth: needed some work to connect Gi…
    ##  9 student_… Windows… MPH   Pretty smooth: needed some work to connect Gi…
    ## 10 student_… Mac OS X <NA>  <NA>                                          
    ## # ... with 165 more rows

``` r
inner_join(surv_os, surv_pr_git)
```

    ## Joining, by = "id"

    ## # A tibble: 129 x 4
    ##    id        os       prog  git_exp                                       
    ##    <chr>     <chr>    <chr> <chr>                                         
    ##  1 student_… <NA>     MS    Pretty smooth: needed some work to connect Gi…
    ##  2 student_… Windows… Other Pretty smooth: needed some work to connect Gi…
    ##  3 student_… Mac OS X MPH   Smooth: installation and connection with GitH…
    ##  4 student_… Windows… MS    Smooth: installation and connection with GitH…
    ##  5 student_… Mac OS X MS    Smooth: installation and connection with GitH…
    ##  6 student_… Mac OS X MS    Smooth: installation and connection with GitH…
    ##  7 student_… Windows… MPH   Pretty smooth: needed some work to connect Gi…
    ##  8 student_… Windows… MPH   Pretty smooth: needed some work to connect Gi…
    ##  9 student_… Windows… MPH   Pretty smooth: needed some work to connect Gi…
    ## 10 student_… Windows… MPH   Smooth: installation and connection with GitH…
    ## # ... with 119 more rows

``` r
anti_join(surv_os, surv_pr_git)
```

    ## Joining, by = "id"

    ## # A tibble: 46 x 2
    ##    id          os                                     
    ##    <chr>       <chr>                                  
    ##  1 student_86  Mac OS X                               
    ##  2 student_91  Windows 10                             
    ##  3 student_24  Mac OS X                               
    ##  4 student_103 Mac OS X                               
    ##  5 student_163 Mac OS X                               
    ##  6 student_68  Other (Linux, Windows, 95, TI-89+, etc)
    ##  7 student_158 Mac OS X                               
    ##  8 student_19  Windows 10                             
    ##  9 student_43  Mac OS X                               
    ## 10 student_78  Mac OS X                               
    ## # ... with 36 more rows
…
